####
#
# OBJ File Generated by Meshlab
#
####
# Object CornellBox.obj
#
# Vertices: 28
# Faces: 32
#
####
mtllib ./CornellBox.mtl

vn 0.445654 0.000000 0.895205
v 0.000000 0.000000 0.000000 0.749020 0.749020 0.749020
vn -0.889970 -0.002546 0.456012
v 27.639999 0.000000 0.000000 0.749020 0.749020 0.749020
vn 0.818622 -0.402284 0.409908
v 0.000000 27.960001 0.000000 0.749020 0.749020 0.749020
vn -0.333080 -0.660443 0.672958
v 27.480000 27.960001 0.000000 0.749020 0.749020 0.749020
vn 0.702484 0.000000 -0.711700
v 0.000000 0.000000 27.440001 0.749020 0.749020 0.749020
vn -0.704534 0.000000 -0.709670
v 27.800001 0.000000 27.440001 0.749020 0.749020 0.749020
vn 0.410465 -0.811534 -0.415850
v 0.000000 27.960001 27.440001 0.749020 0.749020 0.749020
vn -0.665372 -0.332686 -0.668282
v 27.800001 27.960001 27.440001 0.749020 0.749020 0.749020
vn -0.166137 -0.986103 0.000000
v 6.500000 3.250000 0.000000 0.047059 0.800000 0.047059
vn 0.986757 -0.162207 0.000000
v 14.500000 5.700000 0.000000 0.047059 0.800000 0.047059
vn -0.986028 0.166577 0.000000
v 4.100000 11.250000 0.000000 0.047059 0.800000 0.047059
vn 0.172250 0.985053 0.000000
v 12.000000 13.600000 0.000000 0.047059 0.800000 0.047059
vn -0.540741 -0.510811 0.668335
v 6.500000 3.250000 8.250000 0.047059 0.800000 0.047059
vn 0.627044 -0.661335 0.411646
v 14.500000 5.700000 8.250000 0.047059 0.800000 0.047059
vn -0.626844 0.661395 0.411854
v 4.100000 11.250000 8.250000 0.047059 0.800000 0.047059
vn 0.536806 0.514855 0.668404
v 12.000000 13.600000 8.250000 0.047059 0.800000 0.047059
vn -0.886660 -0.462421 0.000000
v 13.250000 14.800000 0.000000 0.800000 0.800000 0.800000
vn 0.724394 -0.689386 0.000000
v 21.150000 12.350000 0.000000 0.800000 0.800000 0.800000
vn -0.469259 0.883060 0.000000
v 15.700000 22.800001 0.000000 0.800000 0.800000 0.800000
vn 0.696272 0.717778 0.000000
v 23.600000 20.300001 0.000000 0.800000 0.800000 0.800000
vn -0.722859 -0.376994 0.579094
v 13.250000 14.800000 16.500000 0.800000 0.800000 0.800000
vn 0.160804 -0.962187 0.219861
v 21.150000 12.350000 16.500000 0.800000 0.800000 0.800000
vn -0.461899 0.869209 0.176425
v 15.700000 22.800001 16.500000 0.800000 0.800000 0.800000
vn 0.900356 0.146797 0.409646
v 23.600000 20.300001 16.500000 0.800000 0.800000 0.800000
vn 0.000000 0.000000 -1.000000
v 10.650001 11.350000 27.435001 0.800000 0.800000 0.800000
vn 0.000000 0.000000 -1.000000
v 17.150000 11.350000 27.435001 0.800000 0.800000 0.800000
vn 0.000000 0.000000 -1.000000
v 10.650001 16.600000 27.435001 0.800000 0.800000 0.800000
vn 0.000000 0.000000 -1.000000
v 17.150000 16.600000 27.435001 0.800000 0.800000 0.800000
# 28 vertices, 0 vertices normals

# ceiling and floor
usemtl White
vt 0.000000 0.000000
vt 1.000000 0.000000
vt 1.000000 1.000000
f 1/1/1 2/2/2 4/3/4
vt 0.000000 1.000000
f 4/3/4 3/4/3 1/1/1
f 5/2/5 7/3/7 8/4/8
f 8/4/8 6/1/6 5/2/5

# wall right
usemtl Red
f 2/2/2 6/3/6 8/4/8
f 8/4/8 4/1/4 2/2/2

# wall back
usemtl White
f 4/2/4 8/3/8 7/4/7
f 7/4/7 3/1/3 4/2/4

#wall left
usemtl Green
f 3/2/3 7/3/7 5/4/5
f 5/4/5 1/1/1 3/2/3

# short block
usemtl Refraction
f 13/1/13 14/2/14 16/3/16
f 16/3/16 15/4/15 13/1/13
f 14/3/14 13/4/13 9/1/9
f 9/1/9 10/2/10 14/3/14
f 10/1/10 12/2/12 16/3/16
f 16/3/16 14/4/14 10/1/10
f 15/3/15 16/4/16 12/1/12
f 12/1/12 11/2/11 15/3/15
f 11/1/11 9/2/9 13/3/13
f 13/3/13 15/4/15 11/1/11

# tall block
usemtl Reflection
f 21/1/21 22/2/22 24/3/24
f 24/3/24 23/4/23 21/1/21
f 17/1/17 18/2/18 22/3/22
f 22/3/22 21/4/21 17/1/17
f 18/1/18 20/2/20 24/3/24
f 24/3/24 22/4/22 18/1/18
f 20/1/20 19/2/19 23/3/23
f 23/3/23 24/4/24 20/1/20
f 23/4/23 19/1/19 17/2/17
f 17/2/17 21/3/21 23/4/23

# light
usemtl white
f 26/2/26 25/1/25 27/4/27
f 27/4/27 28/3/28 26/2/26
# 32 faces, 4 coords texture

# End of File
